{
	head:"<meta charset="utf-8">
     <style>
          body {
               font-family: Calibri, Arial, sans-serif;
               font-size: 12pt;
               width: 210mm;
               /*border: 1px dotted;*/
          }

          h1 {
               text-align: center;
          }

          h4 {
               margin-bottom: 2px;
          }

          p {
               margin: 3px;
          }

          table {
               border: 1px solid black;
               width: 100%;
               border-collapse: collapse;
          }

          table td {
               border: 1px solid black;
               padding: 5px;
          }

          table th {
               border: 1px solid black;
               padding: 5px;
               text-align: left;
          }

          .parte {
               float: left;
               width: 50%;
               min-height: 130px;
               vertical-align: middle;
          }

          .direita {
               text-align: right;
          }

          .centro {
               text-align: center;
          }

          .logo {
               width: auto;
               height: 120px;
               border: 0px;
          }

          .destaque {
               font-weight: bold;
          }

          .campo {
               border: 1px solid black;
               padding: 5px 0px 5px 0px;
               width: 100%
          }

          .pontilhado {
               border: 1px dashed black;
               width: 100%;
          }
     </style>",
	browser:"firefox.exe",
	iniBody:"",
	endBody:"",
	PEDIDO:"<div class=\"parte\">
          <img src=\"logotipo.jpg\" class=\"logo\" alt=\"logo\" />
          </div>
          <div class=\"parte direita\">
               <p>Moreth e Lopes</p>
               <p>(21) 3446-6477</p>
               <p>mthlopes.com.br</p>
          </div>",
	CABECALHO:"
<h1>Pedido de Venda ?SC5->C5_NUM?</h1>
     <h4>Cliente</h4>
     <table>
          <tbody>
               <tr>
                    <td rowspan=\"3\">
                         <p class=\"destaque\">?SmProper(SA1->(IIF(A1_TPCGC=='J', A1_NOME, '')))?</p>
                         <p>?SmProper(Posicione('SA1', 1, SC5->C5_PESSOA, 'IIF(A1_TPCGC==\"J\", A1_NREDUZ, A1_NOME)'))?</p>
                         <p>CNPJ: ?JustChars(SA1->A1_CGC, '0123456789-')?, IE: ?JustChars(SA1->A1_INSCR, '0123456789-')?</p>
                         <p>?SmProper(SA1->A1_END)?, Bairro: ?SmProper(SA1->A1_BAIRRO)?</p>
                         <p>?SmProper(SA1->A1_MUN)?, RJ, ?SmProper(SA1->A1_EST)?</p>
                         <p>Fone: ?SmProper(SA1->A1_FONE)?, Celular: ?SmProper(SA1->A1_CELULAR)?, ?Lower(SA1->A1_EMAIL)?</p>
                    </td>
                    <td class=\"destaque\">
                         Número do Pedido
                    </td>
                    <td>
                         ?SC5->C5_NUM?
                    </td>
               </tr>
               <tr>
                    <td class=\"destaque\">Data</td>
                    <td>?SC5->C5_EMISSAO?</td>
               </tr>
               <tr>
                    <td class=\"destaque\">Previsão de Entrega</td>
                    <td>?SC5->C5_ENTREGA?</td>
               </tr>
          </tbody>
     </table>

     <h4>Contato</h4>
     <div class=\"campo\">
          ?SmProper(Posicione('SA1', 1, SC5->C5_VEND1, 'A1_NOME'))?
     </div>
               ",
	ITENS:{
			OPEN:"<table>
                    <thead>
                         <tr>
                              <th style=\"width: 60%\">Item</th>
                              <th>Quantidade</th>
                              <th>Valor Unitário</th>
                              <th>Valor Total</th>
                         </tr>
                    </thead>
                    <tbody>",
			CLOSE:"</tbody>
                    <tfoot>
                         <tr>
                              <td colspan=\"3\" class=\"direita destaque\">Número de Itens</td>
                              <td class=\"direita\">?nQuant?</td>
                         </tr>
                         <tr>
                              <td colspan=\"3\" class=\"direita destaque\">Valor Total do Pedido</td>
                              <td class=\"direita\">?ApplyPict('C5_VALBRUT')?</td>
                         </tr>
                    </tfoot>
               </table>
				<br/>"
			},
	ITEM:"<tr>
               <td>?SmProper(SB1->B1_CODPROD)?</td>
               <td>?SC6->C6_QUANT?</td>
               <td class=\"direita\">?ApplyPict('C6_PRCUNI')?</td>
               <td class=\"direita\">?ApplyPict('C6_TOTAL')?</td>
          </tr>",
	RODAPE:"<h4>Observações</h4>
     <div class=\"campo\">
          <ol>
               <li>Para produção das peças é necessária a aprovação deste orçamento, com resposta via e-mail.</li>
               <li>O prazo de entrega da produção será combinado com as partes.</li>
               <li>Para orçamentos com necessidade de pagamento de sinal, a produção só será liberada mediante a confirmação do pagamento do mesmo.</li>
               <li>A conferencia e produção de artes não está inclusa neste orçamento.</li>
               <li>Este orçamento tem validade de 30 dias.</li>
               <li>Impostos inclusos.</li>
          </ol>
     </div>


     <hr class=\"pontilhado\" />

     <table>
          <tbody>
               <tr>
                    <td class=\"destaque\" colspan=\"3\">
                         RECEBEMOS DE MORETH & LOPES SERIGRAFIA E IMPRESSÃO DIGITAL LTDA OS PRODUTOS CONSTANTES NO PEDIDO DE VENDA INDICADO A BAIXO
                    </td>
               </tr>
               <tr>
                    <td class=\"centro\">
                         <p>Data de Recebimento</p>
                         <p>____/____/_______</p>
                    </td>
                    <td class=\"centro\">
                         <p>Assinatura do Recebedor (Nome Legível)</p>
                         <p>_________________________________________</p>
                    </td>
                    <td>
                         <p>Pedido de Venda: ?SC5->C5_NUM?</p>
                         <p>Valor Total: ?ApplyPict('C5_VALBRUT')?</p>
                    </td>
               </tr>
          </tbody>
     </table>"
}
